{
    "player": [
        {
            "pos": {
                "x": -133.631,
                "y": 229.561
            }
        }
    ],
    "bullet": [
        {
            "pos": {
                "x": -181.618,
                "y": 166.072
            },
            "color": {
                "r": 255,
                "g": 255,
                "b": 255
            }
        }
    ],
    "ball": [
        {
            "pos": {
                "x": -136.865,
                "y": -283.993
            }
        }
    ],
    "coin": [
        {
            "pos": {
                "x": 144.456,
                "y": 88.954
            }
        },
        {
            "pos": {
                "x": 144.456,
                "y": -39.797
            }
        },
        {
            "pos": {
                "x": -80.012,
                "y": -31.568
            }
        },
        {
            "pos": {
                "x": -80.012,
                "y": -160.319
            }
        }
    ],
    "box": [
        {
            "pos": {
                "x": 189.861,
                "y": -297.05
            },
            "color": {
                "r": 255,
                "g": 255,
                "b": 255
            }
        }
    ],
    "ground": [
        {
            "pos": {
                "x": 1.586,
                "y": -452.894
            },
            "size": {
                "w": 600,
                "h": 200
            },
            "rot": 0
        },
        {
            "pos": {
                "x": -236.976,
                "y": -278.863
            },
            "size": {
                "w": 100,
                "h": 800
            },
            "rot": 0
        },
        {
            "pos": {
                "x": 273.978,
                "y": -10.491
            },
            "size": {
                "w": 50,
                "h": 1000
            },
            "rot": 0
        },
        {
            "pos": {
                "x": 186.947,
                "y": -175.873
            },
            "size": {
                "w": 350,
                "h": 25
            },
            "rot": 0
        },
        {
            "pos": {
                "x": -134.881,
                "y": 100.412
            },
            "size": {
                "w": 300,
                "h": 50
            },
            "rot": 0
        }
    ],
    "col": {
        "points": [
            {
                "x": -280,
                "y": -353
              },
              {
                "x": -276,
                "y": 127
              },
              {
                "x": 13,
                "y": 124
              },
              {
                "x": 13,
                "y": 78
              },
              {
                "x": -186,
                "y": 76
              },
              {
                "x": -185,
                "y": -353
              },
              {
                "x": 248.8,
                "y": -353
              },
              {
                "x": 248.6,
                "y": -189.1
              },
              {
                "x": 11.1,
                "y": -188.3
              },
              {
                "x": 11.1,
                "y": -164.7
              },
              {
                "x": 248.6,
                "y": -162.5
              },
              {
                "x": 248,
                "y": 485
              },
              {
                "x": 275,
                "y": -353
              },
              {
                "x": 12,
                "y": -420
              }
        ]
    },
    "axit": [],
    "wood": [],
    "boom": [
        {
            "pos": {
                "x": 136.656,
                "y": -115.947
            }
        }
    ]
}