{
    "player": [
        {
            "pos": {
                "x": 199.233,
                "y": 355.113
            }
        }
    ],
    "bullet": [
        {
            "pos": {
                "x": 198.159,
                "y": 298.101
            },
            "color": {
                "r": 255,
                "g": 255,
                "b": 255
            }
        }
    ],
    "ball": [
        {
            "pos": {
                "x": -80,
                "y": 331.084
            }
        }
    ],
    "coin": [
        {
            "pos": {
                "x": -161.295,
                "y": 194.164
            }
        },
        {
            "pos": {
                "x": -161.295,
                "y": 93.797
            }
        },
        {
            "pos": {
                "x": -161.295,
                "y": -11.133
            }
        },
        {
            "pos": {
                "x": -161.295,
                "y": -109.219
            }
        }
    ],
    "box": [
        {
            "pos": {
                "x": 47.611,
                "y": -209.078
            },
            "color": {
                "r": 255,
                "g": 255,
                "b": 255
            }
        },
        {
            "pos": {
                "x": 184.475,
                "y": -209.078
            },
            "color": {
                "r": 255,
                "g": 255,
                "b": 255
            }
        }
    ],
    "ground": [
        {
            "pos": {
                "x": 1.586,
                "y": -452.894
            },
            "size": {
                "w": 600,
                "h": 200
            },
            "rot": 0
        },
        {
            "pos": {
                "x": -296.205,
                "y": -70.098
            },
            "size": {
                "w": 100,
                "h": 800
            },
            "rot": 0
        },
        {
            "pos": {
                "x": 299.155,
                "y": -242
            },
            "size": {
                "w": 100,
                "h": 800
            },
            "rot": 0
        },
        {
            "pos": {
                "x": 117.221,
                "y": 162.548
            },
            "size": {
                "w": 400,
                "h": 200
            },
            "rot": 0
        },
        {
            "pos": {
                "x": -54.474,
                "y": -240.768
            },
            "size": {
                "w": 50,
                "h": 500
            },
            "rot": 0
        }
    ],
    "col": {
        "points": [
            {
                "x": -242,
                "y": -355
              },
              {
                "x": -77,
                "y": -354
              },
              {
                "x": -79,
                "y": 9
              },
              {
                "x": -31,
                "y": 8
              },
              {
                "x": -27,
                "y": -354
              },
              {
                "x": 250,
                "y": -353
              },
              {
                "x": 250,
                "y": 62
              },
              {
                "x": -82,
                "y": 63
              },
              {
                "x": -82.2,
                "y": 262
              },
              {
                "x": 250.4,
                "y": 261.3
              },
              {
                "x": 315.9,
                "y": 263.5
              },
              {
                "x": 307,
                "y": -383
              },
              {
                "x": 7,
                "y": -415
              },
              {
                "x": -286,
                "y": -366
              },
              {
                "x": -246,
                "y": 333
              }
        ]
    },
    "axit": [],
    "wood": [],
    "boom": [
        {
            "pos": {
                "x": -159.098,
                "y": -305.485
            }
        },
        {
            "pos": {
                "x": 50.389,
                "y": -306.089
            }
        },
        {
            "pos": {
                "x": 189.392,
                "y": -306.089
            }
        }
    ]
}