{
    "player": [
        {
            "pos": {
                "x": -176.49,
                "y": 377.919
            }
        }
    ],
    "bullet": [
        {
            "pos": {
                "x": -198.102,
                "y": 312.782
            },
            "color": {
                "r": 255,
                "g": 255,
                "b": 255
            }
        }
    ],
    "ball": [],
    "coin": [
        {
            "pos": {
                "x": 97.346,
                "y": 229.988
            }
        },
        {
            "pos": {
                "x": 97.346,
                "y": 99.763
            }
        },
        {
            "pos": {
                "x": -13.098,
                "y": 99.763
            }
        },
        {
            "pos": {
                "x": -14.747,
                "y": -15.627
            }
        }
    ],
    "box": [
        {
            "pos": {
                "x": 153.044,
                "y": -297.715
            },
            "color": {
                "r": 255,
                "g": 255,
                "b": 255
            }
        }
    ],
    "ground": [
        {
            "pos": {
                "x": 1.586,
                "y": -452.894
            },
            "size": {
                "w": 600,
                "h": 200
            },
            "rot": 0
        },
        {
            "pos": {
                "x": -258.698,
                "y": -125.068
            },
            "size": {
                "w": 50,
                "h": 800
            },
            "rot": 0
        },
        {
            "pos": {
                "x": -198.393,
                "y": 262.268
            },
            "size": {
                "w": 100,
                "h": 25
            },
            "rot": 0
        },
        {
            "pos": {
                "x": 66.236,
                "y": -272.763
            },
            "size": {
                "w": 25,
                "h": 400
            },
            "rot": 0
        },
        {
            "pos": {
                "x": 204.069,
                "y": -83.959
            },
            "size": {
                "w": 300,
                "h": 25
            },
            "rot": 0
        }
    ],
    "col": {
        "points": [
            {
                "x": 272,
                "y": -353
              },
              {
                "x": 7,
                "y": -395
              },
              {
                "x": -286,
                "y": -353
              },
              {
                "x": -273.9,
                "y": 275.3
              },
              {
                "x": -148.7,
                "y": 274.2
              },
              {
                "x": -148.2,
                "y": 250.5
              },
              {
                "x": -233.8,
                "y": 249.3
              },
              {
                "x": -234.1,
                "y": -353.2
              },
              {
                "x": 55.4,
                "y": -354
              },
              {
                "x": 55.2,
                "y": -71.2
              },
              {
                "x": 284.1,
                "y": -70.8
              },
              {
                "x": 82.9,
                "y": -97.3
              },
              {
                "x": 82.5,
                "y": -353.8
              }
        ]
    },
    "axit": [],
    "wood": [],
    "boom": [
        {
            "pos": {
                "x": -9.343,
                "y": -306.775
            }
        }
    ]
}