{
    "player": [
        {
            "pos": {
                "x": 193.51,
                "y": -246.721
            }
        }
    ],
    "bullet": [
        {
            "pos": {
                "x": 184.944,
                "y": -314.259
            },
            "color": {
                "r": 255,
                "g": 255,
                "b": 255
            }
        }
    ],
    "ball": [],
    "coin": [
        {
            "pos": {
                "x": 179.767,
                "y": 111.012
            }
        },
        {
            "pos": {
                "x": 179.767,
                "y": 221.978
            }
        },
        {
            "pos": {
                "x": 179.767,
                "y": 338.784
            }
        }
    ],
    "box": [
        {
            "pos": {
                "x": 178.312,
                "y": -53.385
            },
            "color": {
                "r": 255,
                "g": 255,
                "b": 255
            }
        },
        {
            "pos": {
                "x": -215.106,
                "y": 253.222
            },
            "color": {
                "r": 255,
                "g": 255,
                "b": 255
            }
        }
    ],
    "ground": [
        {
            "pos": {
                "x": 1.586,
                "y": -452.894
            },
            "size": {
                "w": 600,
                "h": 200
            },
            "rot": 0
        },
        {
            "pos": {
                "x": 266.754,
                "y": 18.23
            },
            "size": {
                "w": 50,
                "h": 800
            },
            "rot": 0
        },
        {
            "pos": {
                "x": -277.938,
                "y": -203.506
            },
            "size": {
                "w": 50,
                "h": 800
            },
            "rot": 0
        },
        {
            "pos": {
                "x": 239.1,
                "y": -134.503
            },
            "size": {
                "w": 300,
                "h": 50
            },
            "rot": 0
        },
        {
            "pos": {
                "x": -134.881,
                "y": 171.664
            },
            "size": {
                "w": 300,
                "h": 50
            },
            "rot": 0
        }
    ],
    "col": {
        "points": [
            {
                "x": 239,
                "y": -159
            },
            {
                "x": 91,
                "y": -157
            },
            {
                "x": 90,
                "y": -110
            },
            {
                "x": 243,
                "y": -111
            },
            {
                "x": 242,
                "y": 416
            },
            {
                "x": 280,
                "y": -353
            },
            {
                "x": 5,
                "y": -383
            },
            {
                "x": -279,
                "y": -357
            },
            {
                "x": -256.2,
                "y": 196
            },
            {
                "x": 14.2,
                "y": 196
            },
            {
                "x": 15.3,
                "y": 146.4
            },
            {
                "x": -252.5,
                "y": 147.2
            },
            {
                "x": -252,
                "y": -354
            },
            {
                "x": 241.8,
                "y": -353.2
            }
        ]
    },
    "axit": [],
    "wood": [],
    "boom": [
        {
            "pos": {
                "x": -37.657,
                "y": 240.269
            }
        }
    ]
}