{
    "player": [
        {
            "pos": {
                "x": -191.629,
                "y": 333.812
            }
        }
    ],
    "bullet": [
        {
            "pos": {
                "x": -233.179,
                "y": 265.963
            },
            "color": {
                "r": 255,
                "g": 255,
                "b": 255
            }
        }
    ],
    "ball": [],
    "coin": [
        {
            "pos": {
                "x": 169.683,
                "y": 22.622
            }
        },
        {
            "pos": {
                "x": -8.637,
                "y": 14.457
            }
        },
        {
            "pos": {
                "x": -8.637,
                "y": -165.913
            }
        }
    ],
    "box": [
        {
            "pos": {
                "x": -170.238,
                "y": 11.393
            },
            "color": {
                "r": 255,
                "g": 255,
                "b": 255
            }
        },
        {
            "pos": {
                "x": 180.79,
                "y": -299
            },
            "color": {
                "r": 255,
                "g": 255,
                "b": 255
            }
        }
    ],
    "ground": [
        {
            "pos": {
                "x": 1.586,
                "y": -452.894
            },
            "size": {
                "w": 7600,
                "h": 200
            },
            "rot": 0
        },
        {
            "pos": {
                "x": -275.917,
                "y": -75.629
            },
            "size": {
                "w": 50,
                "h": 600
            },
            "rot": 0
        },
        {
            "pos": {
                "x": 266.754,
                "y": -75.629
            },
            "size": {
                "w": 50,
                "h": 600
            },
            "rot": 0
        },
        {
            "pos": {
                "x": -105.66,
                "y": 204.127
            },
            "size": {
                "w": 400,
                "h": 50
            },
            "rot": 0
        },
        {
            "pos": {
                "x": -245.325,
                "y": -69.005
            },
            "size": {
                "w": 300,
                "h": 50
            },
            "rot": 0
        },
        {
            "pos": {
                "x": 223.817,
                "y": -69.005
            },
            "size": {
                "w": 300,
                "h": 50
            },
            "rot": 0
        }
    ],
    "col": {
        "points": [
            {
                "x": 96,
                "y": 228
            },
            {
                "x": -298,
                "y": 227
            },
            {
                "x": -282,
                "y": -358
            },
            {
                "x": -102,
                "y": -383
            },
            {
                "x": 277,
                "y": -353
            },
            {
                "x": 261,
                "y": 221
            },
            {
                "x": 240,
                "y": 227
            },
            {
                "x": 240,
                "y": -43
            },
            {
                "x": 77,
                "y": -44
            },
            {
                "x": 77,
                "y": -92
            },
            {
                "x": 240,
                "y": -94
            },
            {
                "x": 240,
                "y": -352
            },
            {
                "x": -250.8,
                "y": -352
            },
            {
                "x": -251,
                "y": -93
            },
            {
                "x": -97,
                "y": -92
            },
            {
                "x": -96,
                "y": -44
            },
            {
                "x": -251,
                "y": -45
            },
            {
                "x": -249,
                "y": 177
            },
            {
                "x": 95,
                "y": 179
            }
        ]
    },
    "axit": []
}