{
    "player": [
        {
            "pos": {
                "x": -133.631,
                "y": 229.561
            }
        }
    ],
    "bullet": [
        {
            "pos": {
                "x": -181.618,
                "y": 166.072
            },
            "color": {
                "r": 255,
                "g": 255,
                "b": 255
            }
        }
    ],
    "ball": [],
    "coin": [
        {
            "pos": {
                "x": 169.746,
                "y": 40.672
            }
        },
        {
            "pos": {
                "x": -80.012,
                "y": -72.952
            }
        },
        {
            "pos": {
                "x": -80.012,
                "y": -201.703
            }
        },
        {
            "pos": {
                "x": 36.397,
                "y": -278.906
            }
        }
    ],
    "box": [
        {
            "pos": {
                "x": 166.87,
                "y": -297.05
            },
            "color": {
                "r": 255,
                "g": 255,
                "b": 255
            }
        },
        {
            "pos": {
                "x": 74.874,
                "y": -54.008
            },
            "color": {
                "r": 255,
                "g": 255,
                "b": 255
            }
        }
    ],
    "ground": [
        {
            "pos": {
                "x": 1.586,
                "y": -452.894
            },
            "size": {
                "w": 600,
                "h": 200
            },
            "rot": 0
        },
        {
            "pos": {
                "x": -236.976,
                "y": -278.863
            },
            "size": {
                "w": 100,
                "h": 800
            },
            "rot": 0
        },
        {
            "pos": {
                "x": 273.978,
                "y": -10.491
            },
            "size": {
                "w": 50,
                "h": 1000
            },
            "rot": 0
        },
        {
            "pos": {
                "x": 186.947,
                "y": -125.292
            },
            "size": {
                "w": 350,
                "h": 25
            },
            "rot": 0
        },
        {
            "pos": {
                "x": -134.881,
                "y": 100.412
            },
            "size": {
                "w": 300,
                "h": 50
            },
            "rot": 0
        }
    ],
    "col": {
        "points": [
            {
                "x": 14,
                "y": 124
            },
            {
                "x": 14,
                "y": 77
            },
            {
                "x": -186,
                "y": 75
            },
            {
                "x": -186.6,
                "y": -353
            },
            {
                "x": 248.6,
                "y": -353
            },
            {
                "x": 248.6,
                "y": -139
            },
            {
                "x": 12.8,
                "y": -138.8
            },
            {
                "x": 13.3,
                "y": -112.5
            },
            {
                "x": 248.6,
                "y": -112.5
            },
            {
                "x": 248.6,
                "y": 490.9
            },
            {
                "x": 284.7,
                "y": -352.5
            },
            {
                "x": 1.7,
                "y": -395.7
            },
            {
                "x": -205.9,
                "y": -353.4
            },
            {
                "x": -276.8,
                "y": 125
            }
        ]
    },
    "axit": [],
    "wood": [],
    "boom": []
}