{
    "player": [
        {
            "pos": {
                "x": 165.694,
                "y": -224.51
            }
        }
    ],
    "bullet": [
        {
            "pos": {
                "x": 165.075,
                "y": -292.256
            },
            "color": {
                "r": 255,
                "g": 255,
                "b": 255
            }
        }
    ],
    "ball": [
        {
            "pos": {
                "x": 48.665,
                "y": 276.642
            }
        }
    ],
    "coin": [
        {
            "pos": {
                "x": 168.515,
                "y": -88.43
            }
        },
        {
            "pos": {
                "x": 168.515,
                "y": 16.874
            }
        },
        {
            "pos": {
                "x": 168.515,
                "y": 149.994
            }
        }
    ],
    "box": [
        {
            "pos": {
                "x": -98.623,
                "y": -294.061
            },
            "color": {
                "r": 255,
                "g": 255,
                "b": 255
            }
        }
    ],
    "ground": [
        {
            "pos": {
                "x": 1.586,
                "y": -452.894
            },
            "size": {
                "w": 600,
                "h": 200
            },
            "rot": 0
        },
        {
            "pos": {
                "x": -256.509,
                "y": 18.23
            },
            "size": {
                "w": 50,
                "h": 800
            },
            "rot": 0
        },
        {
            "pos": {
                "x": 266.754,
                "y": 18.23
            },
            "size": {
                "w": 50,
                "h": 800
            },
            "rot": 0
        },
        {
            "pos": {
                "x": 48.972,
                "y": -91.949
            },
            "size": {
                "w": 50,
                "h": 600
            },
            "rot": 0
        },
        {
            "pos": {
                "x": -196.814,
                "y": -175.458
            },
            "size": {
                "w": 100,
                "h": 25
            },
            "rot": 0
        },
        {
            "pos": {
                "x": -9.096,
                "y": -175.458
            },
            "size": {
                "w": 100,
                "h": 25
            },
            "rot": 0
        }
    ],
    "col": {
        "points": [
            {
                "x": 26,
                "y": 209
            },
            {
                "x": 25,
                "y": -163
            },
            {
                "x": -59,
                "y": -163
            },
            {
                "x": -58,
                "y": -188
            },
            {
                "x": 25,
                "y": -189
            },
            {
                "x": 25,
                "y": -351
            },
            {
                "x": -230,
                "y": -354
            },
            {
                "x": -230.4,
                "y": -189.1
            },
            {
                "x": -146.4,
                "y": -188.9
            },
            {
                "x": -146.3,
                "y": -163.4
            },
            {
                "x": -230.5,
                "y": -163.4
            },
            {
                "x": -231.9,
                "y": 419.3
            },
            {
                "x": -282.6,
                "y": -352.5
            },
            {
                "x": -102,
                "y": -383
            },
            {
                "x": 277,
                "y": -353
            },
            {
                "x": 242,
                "y": 417
            },
            {
                "x": 240.7,
                "y": -353
            },
            {
                "x": 75,
                "y": -353
            },
            {
                "x": 73,
                "y": 209
            }
        ]
    },
    "axit": [],
    "wood": [],
    "boom": [
        {
            "pos": {
                "x": -100.898,
                "y": -114.977
            }
        }
    ]
}