{
    "player": [
        {
            "pos": {
                "x": 0,
                "y": 343.066
            }
        },
        {
            "pos": {
                "x": 75.19,
                "y": 56.129
            }
        }
    ],
    "bullet": [
        {
            "pos": {
                "x": 0,
                "y": 238.849
            },
            "color": {
                "r": 255,
                "g": 0,
                "b": 0
            }
        },
        {
            "pos": {
                "x": 84.804,
                "y": -33.3
            },
            "color": {
                "r": 0,
                "g": 0,
                "b": 255
            }
        }
    ],
    "ball": [],
    "coin": [
        {
            "pos": {
                "x": 188.627,
                "y": -116.191
            }
        },
        {
            "pos": {
                "x": -188.627,
                "y": -116.191
            }
        },
        {
            "pos": {
                "x": -200,
                "y": 207.822
            }
        }
    ],
    "box": [
        {
            "pos": {
                "x": 176.783,
                "y": -290.123
            },
            "color": {
                "r": 255,
                "g": 0,
                "b": 0
            }
        },
        {
            "pos": {
                "x": -176.783,
                "y": -290.123
            },
            "color": {
                "r": 0,
                "g": 0,
                "b": 255
            }
        },
        {
            "pos": {
                "x": -69.119,
                "y": -22.737
            },
            "color": {
                "r": 0,
                "g": 0,
                "b": 255
            }
        }
    ],
    "ground": [
        {
            "pos": {
                "x": 1.586,
                "y": -452.894
            },
            "size": {
                "w": 600,
                "h": 200
            },
            "rot": 0
        },
        {
            "pos": {
                "x": 0,
                "y": -235.298
            },
            "size": {
                "w": 200,
                "h": 300
            },
            "rot": 0
        }
    ],
    "col": {
        "points": [
            {
                "x": -299,
                "y": -355
              },
              {
                "x": -4,
                "y": -450
              },
              {
                "x": 300.2,
                "y": -353.7
              },
              {
                "x": 100,
                "y": -355
              },
              {
                "x": 98.9,
                "y": -87.6
              },
              {
                "x": -99,
                "y": -86.3
              },
              {
                "x": -100.3,
                "y": -354
              }
        ]
    },
    "axit": [],
    "wood": [
        {
            "pos": {
                "x": 0,
                "y": 173.325
            },
            "rot": 0
        }
    ],
    "boom": []
}