{
    "player": [
        {
            "pos": {
                "x": -209.666,
                "y": 238.474
            }
        }
    ],
    "bullet": [
        {
            "pos": {
                "x": -233.179,
                "y": 155.165
            },
            "color": {
                "r": 255,
                "g": 255,
                "b": 255
            }
        }
    ],
    "ball": [
        {
            "pos": {
                "x": 28.588,
                "y": 178.606
            }
        }
    ],
    "coin": [
        {
            "pos": {
                "x": -111.178,
                "y": 195.261
            }
        },
        {
            "pos": {
                "x": -109.129,
                "y": 341.698
            }
        }
    ],
    "box": [
        {
            "pos": {
                "x": 10.727,
                "y": -299
            },
            "color": {
                "r": 255,
                "g": 255,
                "b": 255
            }
        }
    ],
    "ground": [
        {
            "pos": {
                "x": 1.586,
                "y": -452.894
            },
            "size": {
                "w": 600,
                "h": 200
            },
            "rot": 0
        },
        {
            "pos": {
                "x": -275.917,
                "y": -199.311
            },
            "size": {
                "w": 50,
                "h": 600
            },
            "rot": 0
        },
        {
            "pos": {
                "x": 266.754,
                "y": -75.629
            },
            "size": {
                "w": 50,
                "h": 600
            },
            "rot": 0
        },
        {
            "pos": {
                "x": -154.617,
                "y": 85.598
            },
            "size": {
                "w": 400,
                "h": 50
            },
            "rot": 0
        },
        {
            "pos": {
                "x": 326.885,
                "y": -179.803
            },
            "size": {
                "w": 300,
                "h": 50
            },
            "rot": 0
        }
    ],
    "col": {
        "points": [
            {
                "x": 46,
                "y": 109
            },
            {
                "x": -298,
                "y": 109
            },
            {
                "x": -282,
                "y": -358
            },
            {
                "x": -102,
                "y": -383
            },
            {
                "x": 277,
                "y": -353
            },
            {
                "x": 261,
                "y": 221
            },
            {
                "x": 240,
                "y": 227
            },
            {
                "x": 240.7,
                "y": -154.8
            },
            {
                "x": 177.2,
                "y": -156.4
            },
            {
                "x": 178.7,
                "y": -203.1
            },
            {
                "x": 240.8,
                "y": -203.9
            },
            {
                "x": 241,
                "y": -353
            },
            {
                "x": -250,
                "y": -351
            },
            {
                "x": -253,
                "y": 63
            },
            {
                "x": 45,
                "y": 61
            }
        ]
    },
    "axit": []
}