{
    "player": [
        {
            "pos": {
                "x": 86.267,
                "y": 288.754
            }
        }
    ],
    "bullet": [
        {
            "pos": {
                "x": 181.731,
                "y": 290.713
            },
            "color": {
                "r": 0,
                "g": 0,
                "b": 255
            }
        }
    ],
    "ball": [
        {
            "pos": {
                "x": -177.238,
                "y": 109.919
            }
        }
    ],
    "coin": [
        {
            "pos": {
                "x": 149.856,
                "y": 116.434
            }
        },
        {
            "pos": {
                "x": 149.856,
                "y": -31.296
            }
        },
        {
            "pos": {
                "x": 34.955,
                "y": -164.957
            }
        }
    ],
    "box": [
        {
            "pos": {
                "x": -161.077,
                "y": -295.662
            },
            "color": {
                "r": 255,
                "g": 0,
                "b": 0
            }
        }
    ],
    "ground": [
        {
            "pos": {
                "x": 1.586,
                "y": -452.894
            },
            "size": {
                "w": 600,
                "h": 200
            },
            "rot": 0
        },
        {
            "pos": {
                "x": 266.123,
                "y": -352.599
            },
            "size": {
                "w": 400,
                "h": 400
            },
            "rot": 45
        },
        {
            "pos": {
                "x": -269.21,
                "y": -40.455
            },
            "size": {
                "w": 200,
                "h": 200
            },
            "rot": 45
        },
        {
            "pos": {
                "x": -208.319,
                "y": -52.247
            },
            "size": {
                "w": 300,
                "h": 50
            },
            "rot": 0
        },
        {
            "pos": {
                "x": 205.91,
                "y": 210
            },
            "size": {
                "w": 150,
                "h": 25
            },
            "rot": 0
        }
    ],
    "col": {
        "points": [
            {
                "x": -404,
                "y": -355
              },
              {
                "x": -4,
                "y": -450
              },
              {
                "x": 342,
                "y": -348
              },
              {
                "x": 260.5,
                "y": 404
              },
              {
                "x": 260.3,
                "y": 222.4
              },
              {
                "x": 130.7,
                "y": 221.5
              },
              {
                "x": 130.2,
                "y": 197.2
              },
              {
                "x": 260.3,
                "y": 197.3
              },
              {
                "x": 260,
                "y": -74
              },
              {
                "x": -19,
                "y": -358
              },
              {
                "x": -297,
                "y": -357
              },
              {
                "x": -265,
                "y": -178
              },
              {
                "x": -169,
                "y": -79
              },
              {
                "x": -61,
                "y": -79
              },
              {
                "x": -58,
                "y": -30
              },
              {
                "x": -140,
                "y": -29
              },
              {
                "x": -275,
                "y": 104
              }
        ]
    },
    "axit": [],
    "wood": [
        {
            "pos": {
                "x": -77.542,
                "y": 87.475
            },
            "rot": 90
        }
    ],
    "boom": []
}