{
    "player": [
        {
            "pos": {
                "x": -38.353,
                "y": -237.422
            }
        }
    ],
    "bullet": [
        {
            "pos": {
                "x": -35.152,
                "y": -306.135
            },
            "color": {
                "r": 255,
                "g": 0,
                "b": 0
            }
        }
    ],
    "ball": [],
    "coin": [
        {
            "pos": {
                "x": 0,
                "y": 42.744
            }
        },
        {
            "pos": {
                "x": 143.041,
                "y": 42.744
            }
        },
        {
            "pos": {
                "x": -143.041,
                "y": 42.744
            }
        }
    ],
    "box": [
        {
            "pos": {
                "x": 136,
                "y": -300
            },
            "color": {
                "r": 255,
                "g": 0,
                "b": 0
            }
        },
        {
            "pos": {
                "x": -26.851,
                "y": 211.109
            },
            "color": {
                "r": 255,
                "g": 0,
                "b": 0
            }
        }
    ],
    "ground": [
        {
            "pos": {
                "x": 1.586,
                "y": -452.894
            },
            "size": {
                "w": 600,
                "h": 200
            },
            "rot": 0
        },
        {
            "pos": {
                "x": 310,
                "y": 3.927
            },
            "size": {
                "w": 100,
                "h": 800
            },
            "rot": 0
        },
        {
            "pos": {
                "x": -310,
                "y": 3.927
            },
            "size": {
                "w": 100,
                "h": 800
            },
            "rot": 0
        },
        {
            "pos": {
                "x": -215.277,
                "y": 208.107
            },
            "size": {
                "w": 200,
                "h": 200
            },
            "rot": 0
        },
        {
            "pos": {
                "x": 189.496,
                "y": 144.342
            },
            "size": {
                "w": 150,
                "h": 25
            },
            "rot": 0
        },
        {
            "pos": {
                "x": -29.42,
                "y": -131.621
            },
            "size": {
                "w": 150,
                "h": 25
            },
            "rot": 0
        },
        {
            "pos": {
                "x": 33.487,
                "y": -279.626
            },
            "size": {
                "w": 25,
                "h": 300
            },
            "rot": 0
        }
    ],
    "col": {
        "points": [
            {
                "x": -404,
                "y": -355
            },
            {
                "x": -4,
                "y": -450
            },
            {
                "x": 342,
                "y": -348
            },
            {
                "x": 260.5,
                "y": 404
            },
            {
                "x": 259.9,
                "y": 157.2
            },
            {
                "x": 113.4,
                "y": 155.7
            },
            {
                "x": 114.4,
                "y": 132
            },
            {
                "x": 259.8,
                "y": 131.5
            },
            {
                "x": 258.6,
                "y": -354
            },
            {
                "x": 45,
                "y": -354
            },
            {
                "x": 45,
                "y": -119.4
            },
            {
                "x": -105.3,
                "y": -118.9
            },
            {
                "x": -104.6,
                "y": -143.9
            },
            {
                "x": 20,
                "y": -145
            },
            {
                "x": 20,
                "y": -354
            },
            {
                "x": -261,
                "y": -355
            },
            {
                "x": -263,
                "y": 108
            },
            {
                "x": -116,
                "y": 111
            },
            {
                "x": -264,
                "y": 343
            }
        ]
    },
    "axit": [],
    "wood": [
        {
            "pos": {
                "x": -1.326,
                "y": 131.285
            },
            "rot": 0
        }
    ],
    "boom": [{
        "pos": {
            "x": -26.291,
            "y": -76.333
        }
    }]
}