{
    "player": [
        {
            "pos": {
                "x": -158.746,
                "y": 250.615
            }
        }
    ],
    "bullet": [
        {
            "pos": {
                "x": -212.667,
                "y": 199.208
            },
            "color": {
                "r": 255,
                "g": 0,
                "b": 0
            }
        }
    ],
    "ball": [],
    "coin": [
        {
            "pos": {
                "x": -205.715,
                "y": 51.4
            }
        },
        {
            "pos": {
                "x": -205.715,
                "y": -252.493
            }
        },
        {
            "pos": {
                "x": -32.34,
                "y": -63.534
            }
        }
    ],
    "box": [
        {
            "pos": {
                "x": 195.637,
                "y": 80.625
            },
            "color": {
                "r": 255,
                "g": 0,
                "b": 0
            }
        }
    ],
    "ground": [
        {
            "pos": {
                "x": 1.586,
                "y": -452.894
            },
            "size": {
                "w": 600,
                "h": 200
            },
            "rot": 0
        },
        {
            "pos": {
                "x": -310,
                "y": 3.927
            },
            "size": {
                "w": 100,
                "h": 800
            },
            "rot": 0
        },
        {
            "pos": {
                "x": 310,
                "y": 3.927
            },
            "size": {
                "w": 100,
                "h": 800
            },
            "rot": 0
        },
        {
            "pos": {
                "x": 176.793,
                "y": 245.46
            },
            "size": {
                "w": 300,
                "h": 25
            },
            "rot": 0
        },
        {
            "pos": {
                "x": 39.175,
                "y": 7.31
            },
            "size": {
                "w": 25,
                "h": 500
            },
            "rot": 0
        },
        {
            "pos": {
                "x": -216,
                "y": 135
            },
            "size": {
                "w": 100,
                "h": 50
            },
            "rot": 0
        }
    ],
    "col": {
        "points": [
            {
                "x": -259,
                "y": -355
              },
              {
                "x": -260.8,
                "y": 110.1
              },
              {
                "x": -167.2,
                "y": 110.3
              },
              {
                "x": -166.7,
                "y": 159.3
              },
              {
                "x": -261,
                "y": 159.3
              },
              {
                "x": -262,
                "y": 401
              },
              {
                "x": -324,
                "y": -371
              },
              {
                "x": -9,
                "y": -404
              },
              {
                "x": 318,
                "y": -368
              },
              {
                "x": 261.1,
                "y": 403.7
              },
              {
                "x": 260.4,
                "y": 258.9
              },
              {
                "x": 27,
                "y": 258.3
              },
              {
                "x": 28,
                "y": -242
              },
              {
                "x": 52,
                "y": -243
              },
              {
                "x": 50.2,
                "y": 233.1
              },
              {
                "x": 259.6,
                "y": 234.3
              },
              {
                "x": 259,
                "y": -353
              }
        ]
    },
    "axit": [],
    "wood": [
        {
            "pos": {
                "x": 157.737,
                "y": -6.872
            },
            "rot": 0
        },
        {
            "pos": {
                "x": 157.737,
                "y": -175.872
            },
            "rot": 0
        }
    ],
    "boom": [
        {
            "pos": {
                "x": 197.544,
                "y": -105.759
            }
        },
        {
            "pos": {
                "x": 197.544,
                "y": -307.629
            }
        }
    ]
}