{
    "player": [
        {
            "pos": {
                "x": -165.577,
                "y": 94.495
            }
        }
    ],
    "bullet": [
        {
            "pos": {
                "x": -196.482,
                "y": 23.779
            },
            "color": {
                "r": 255,
                "g": 255,
                "b": 255
            }
        }
    ],
    "ball": [
        {
            "pos": {
                "x": 211.282,
                "y": 102.82
            }
        }
    ],
    "coin": [
        {
            "pos": {
                "x": -193.516,
                "y": 293.576
            }
        },
        {
            "pos": {
                "x": -193.516,
                "y": 413.131
            }
        },
        {
            "pos": {
                "x": -75.413,
                "y": 412.164
            }
        }
    ],
    "box": [
        {
            "pos": {
                "x": -10.241,
                "y": -297.05
            },
            "color": {
                "r": 255,
                "g": 255,
                "b": 255
            }
        }
    ],
    "ground": [
        {
            "pos": {
                "x": 1.586,
                "y": -452.894
            },
            "size": {
                "w": 600,
                "h": 200
            },
            "rot": 0
        },
        {
            "pos": {
                "x": -269.164,
                "y": -278.863
            },
            "size": {
                "w": 300,
                "h": 500
            },
            "rot": 0
        },
        {
            "pos": {
                "x": 198.344,
                "y": -268.174
            },
            "size": {
                "w": 200,
                "h": 300
            },
            "rot": 0
        },
        {
            "pos": {
                "x": 292.944,
                "y": -65.4
            },
            "size": {
                "w": 350,
                "h": 200
            },
            "rot": 135
        },
        {
            "pos": {
                "x": 25.365,
                "y": -206.985
            },
            "size": {
                "w": 350,
                "h": 25
            },
            "rot": 0
        }
    ],
    "col": {
        "points": [
            {
                "x": 100,
                "y": -351
            },
            {
                "x": -120,
                "y": -351
            },
            {
                "x": -119.8,
                "y": -221.1
            },
            {
                "x": 95.7,
                "y": -219.8
            },
            {
                "x": 95.5,
                "y": -196
            },
            {
                "x": -119.8,
                "y": -195.3
            },
            {
                "x": -119.5,
                "y": -28.4
            },
            {
                "x": -321.9,
                "y": -29.2
            },
            {
                "x": -335,
                "y": -353
            },
            {
                "x": -8,
                "y": -418
            },
            {
                "x": 248.6,
                "y": -353
            },
            {
                "x": 286,
                "y": 68
            },
            {
                "x": 98,
                "y": -118
            }
        ]
    },
    "axit": [],
    "wood": [
        {
            "pos": {
                "x": 121.562,
                "y": 49.021
            },
            "rot": 45
        }
    ],
    "boom": [
        {
            "pos": {
                "x": 1.007,
                "y": -148.135
            }
        }
    ]
}