{
    "player": [
        {
            "pos": {
                "x": 193.439,
                "y": 246.95
            }
        }
    ],
    "bullet": [
        {
            "pos": {
                "x": 194.296,
                "y": 164.828
            },
            "color": {
                "r": 255,
                "g": 255,
                "b": 255
            }
        }
    ],
    "ball": [],
    "coin": [
        {
            "pos": {
                "x": -138.484,
                "y": 194.164
            }
        },
        {
            "pos": {
                "x": -138.484,
                "y": 100.64
            }
        },
        {
            "pos": {
                "x": -138.484,
                "y": 13.959
            }
        },
        {
            "pos": {
                "x": -47.241,
                "y": 100.64
            }
        },
        {
            "pos": {
                "x": 41.721,
                "y": 100.64
            }
        }
    ],
    "box": [
        {
            "pos": {
                "x": -91.534,
                "y": -133.803
            },
            "color": {
                "r": 255,
                "g": 255,
                "b": 255
            }
        },
        {
            "pos": {
                "x": 29.363,
                "y": -133.803
            },
            "color": {
                "r": 255,
                "g": 255,
                "b": 255
            }
        }
    ],
    "ground": [
        {
            "pos": {
                "x": 1.586,
                "y": -452.894
            },
            "size": {
                "w": 600,
                "h": 200
            },
            "rot": 0
        },
        {
            "pos": {
                "x": -296.205,
                "y": -70.098
            },
            "size": {
                "w": 100,
                "h": 800
            },
            "rot": 0
        },
        {
            "pos": {
                "x": 299.155,
                "y": -70.098
            },
            "size": {
                "w": 100,
                "h": 800
            },
            "rot": 0
        },
        {
            "pos": {
                "x": 331.561,
                "y": 86.277
            },
            "size": {
                "w": 350,
                "h": 25
            },
            "rot": 0
        }
    ],
    "col": {
        "points": [
            {
                "x": -242,
                "y": -355
              },
              {
                "x": 250,
                "y": -353
              },
              {
                "x": 251,
                "y": 73
              },
              {
                "x": 155.7,
                "y": 72.4
              },
              {
                "x": 154.6,
                "y": 98.5
              },
              {
                "x": 251,
                "y": 101
              },
              {
                "x": 252,
                "y": 331
              },
              {
                "x": 307,
                "y": -383
              },
              {
                "x": 7,
                "y": -415
              },
              {
                "x": -286,
                "y": -366
              },
              {
                "x": -246,
                "y": 333
              }
        ]
    },
    "axit": [],
    "wood": [
        {
            "pos": {
                "x": -31.484,
                "y": 292.707
            },
            "rot": 0
        },
        {
            "pos": {
                "x": -31.484,
                "y": -215.972
            },
            "rot": 0
        }
    ],
    "boom": [
        {
            "pos": {
                "x": -26.796,
                "y": 362.869
            }
        }  
    ],
    "spine": [],
    "sat": []
}